…
``` r
expand_grid(faces, faces)
```

    ## # A tibble: 36 × 2
    ##    faces...1 faces...2
    ##    <chr>     <chr>    
    ##  1 1 pip     1 pip    
    ##  2 1 pip     2 pips   
    ##  3 1 pip     3 pips   
    ##  4 1 pip     4 pips   
    ##  5 1 pip     5 pips   
    ##  6 1 pip     6 pips   
    ##  7 2 pips    1 pip    
    ##  8 2 pips    2 pips   
    ##  9 2 pips    3 pips   
    ## 10 2 pips    4 pips   
    ## # … with 26 more rows
…
