…
## 11.24 강력한 ANOVA 수행(Kruskal-Wallis 검정)

``` r
load(file = "./data/student_data.rdata")
student_data
```

    ## # A tibble: 94 × 4
    ##    att.fact hw.mean midterm hw   
    ##    <fct>      <dbl>   <dbl> <fct>
    ##  1 3          0.808   0.818 4    
    ##  2 3          0.830   0.682 4    
    ##  3 3          0.444   0.511 2    
    ##  4 3          0.663   0.670 3    
    ##  5 2          0.9     0.682 4    
    ##  6 3          0.948   0.954 4    
    ##  7 3          0.993   0.909 4    
    ##  8 3          0.531   0.966 3    
    ##  9 3          0.956   1     4    
    ## 10 2          0.647   0.727 4    
    ## # … with 84 more rows
    ## # ℹ Use `print(n = ...)` to see more rows
…
