…
``` r
x <- 1:10
y1 <- x**1.5
y2 <- x**2
y3 <- x**2.5
df <- data.frame(x, y1, y2, y3)
```

``` r
df_long <- pivot_longer(df, c(y1, y2, y3), names_to = "bucket", values_to = "y")
df_long
```

    ## # A tibble: 30 × 3
    ##        x bucket     y
    ##    <int> <chr>  <dbl>
    ##  1     1 y1      1   
    ##  2     1 y2      1   
    ##  3     1 y3      1   
    ##  4     2 y1      2.83
    ##  5     2 y2      4   
    ##  6     2 y3      5.66
    ##  7     3 y1      5.20
    ##  8     3 y2      9   
    ##  9     3 y3     15.6 
    ## 10     4 y1      8   
    ## # … with 20 more rows
    ## # ℹ Use `print(n = ...)` to see more rows
…
