…
    ## Rows: 26 Columns: 3
    ## ── Column specification ───────────────────────────────────────────────────────────────────────────────────────
    ## Delimiter: ","
    ## chr  (2): Name, Location
    ## time (1): Time
    ## 
    ## ℹ Use `spec()` to retrieve the full column specification for this data.
    ## ℹ Specify the column types or set `show_col_types = FALSE` to quiet this message.

``` r
berkley
```

    ## # A tibble: 26 × 3
    ##    Name                Location Time    
    ##    <chr>               <chr>    <time>  
    ##  1 Gary Robbins        CAN      08:38:08
    ##  2 Allie Beaven        SCO      08:38:09
    ##  3 Guillaume Calmettes CA       08:38:10
    ##  4 Jamil Coury         AZ       08:58:55
    ##  5 Benoit Laval        FRA      09:07:15
    ##  6 Valery Caussarieu   FRA      09:07:20
    ##  7 Jodi Isenor         CAN      09:23:31
    ##  8 Johan Steene        SWE      09:56:54
    ##  9 Scott Martin        OR       09:56:55
    ## 10 Josep Barbarillo    ESP      10:53:15
    ## # … with 16 more rows
    ## # ℹ Use `print(n = ...)` to see more rows
…
``` r
all_tables <-
  read_html("https://en.wikipedia.org/wiki/Aviation_accidents_and_incidents") %>%
  html_table(fill = TRUE, header = TRUE)
all_tables
```

    ## [[1]]
    ## # A tibble: 0 × 2
    ## # … with 2 variables:  <lgl>,
    ## #   This article needs additional citations for verification. Please help improve this article by adding citations to reliable sources. Unsourced material may be challenged and removed.Find sources: "Aviation accidents and incidents" – news · newspapers · books · scholar · JSTOR  (August 2014) (Learn how and when to remove this template message) <lgl>
    ## # ℹ Use `colnames()` to see all variable names
    ## 
    ## [[2]]
    ## # A tibble: 52 × 3
    ##     Year `Deaths[58]` `Number of incidents[59]`
    ##    <int> <chr>                            <int>
    ##  1  1970 2,226                              298
    ##  2  1971 2,228                              271
    ##  3  1972 3,346                              344
    ##  4  1973 2,814                              333
    ##  5  1974 2,621                              270
    ##  6  1975 1,856                              316
    ##  7  1976 2,419                              277
    ##  8  1977 2,449                              340
    ##  9  1978 2,042                              356
    ## 10  1979 2,511                              328
    ## # … with 42 more rows
    ## # ℹ Use `print(n = ...)` to see more rows
    ## 
    ## [[3]]
…
    ##     Rank Country        Population    `Area(km2)` `Density(pop/km2)` `Population trend`
    ##    <int> <chr>          <chr>         <chr>       <chr>              <chr>             
    ##  1     1 India          1,381,950,000 3,287,240   420                Growing           
    ##  2     2 Pakistan       229,850,000   803,940     286                Rapidly growing   
    ##  3     3 Bangladesh     173,350,000   143,998     1,204              Rapidly growing   
    ##  4     4 Japan          126,010,000   377,873     333                Declining[102]    
    ##  5     5 Philippines    112,380,000   300,000     375                Growing           
    ##  6     6 Vietnam        96,209,000    331,689     290                Growing           
    ##  7     7 United Kingdom 66,436,000    243,610     273                Growing           
    ##  8     8 South Korea    51,781,000    99,538      520                Steady            
    ##  9     9 Taiwan         23,604,000    36,193      652                Steady            
    ## 10    10 Sri Lanka      21,803,000    65,610      332                Growing           
    ## 
    ## [[8]]
    ## # A tibble: 71 × 7
    ##    Year  Population    `Yearly growth` `Yearly growth` `Density(pop/km2)` `Urban population` `Urban population`
    ##    <chr> <chr>         <chr>           <chr>           <chr>              <chr>              <chr>             
    ##  1 Year  Population    %               Number          Density(pop/km2)   Number             %                 
    ##  2 1951  2,584,034,261 1.88%           47,603,112      17                 775,067,697        30%               
    ##  3 1952  2,630,861,562 1.81%           46,827,301      18                 799,282,533        30%               
    ##  4 1953  2,677,608,960 1.78%           46,747,398      18                 824,289,989        31%               
    ##  5 1954  2,724,846,741 1.76%           47,237,781      18                 850,179,106        31%               
    ##  6 1955  2,773,019,936 1.77%           48,173,195      19                 877,008,842        32%               
    ##  7 1956  2,822,443,282 1.78%           49,423,346      19                 904,685,164        32%               
    ##  8 1957  2,873,306,090 1.80%           50,862,808      19                 933,113,168        32%               
    ##  9 1958  2,925,686,705 1.82%           52,380,615      20                 962,537,113        33%               
    ## 10 1959  2,979,576,185 1.84%           53,889,480      20                 992,820,546        33%               
    ## # … with 61 more rows
    ## # ℹ Use `print(n = ...)` to see more rows
    ## 
    ## [[9]]
…
    ## 7 Oceania          3      3      3      2      2 2      6      13     30     34     37     38     57     51    
    ## 
    ## [[10]]
    ## # A tibble: 6 × 15
    ##   Region      `1500` `1600` `1700` `1750` `1800` `1850` `1900` `1950` `1999` `2008` `2010` `2012` `2050` `2150`
    ##   <chr>        <dbl>  <dbl>  <dbl>  <dbl>  <dbl>  <dbl>  <dbl>  <dbl>  <dbl>  <dbl>  <dbl>  <dbl>  <dbl>  <dbl>
    ## 1 Africa        14.7   17.3   14.9   13.4   10.9    8.8    8.1    8.8   13     14.5   14.8   15.2   25.5   23.7
    ## 2 Asia          48.2   53     57.9   63.5   64.9   64.1   57.4   55.6   61.6   60.4   60.4   60.3   54.2   57.1
    ## 3 Europe        28.7   25.8   25.1   20.6   20.8   21.9   24.7   21.7   11.2   10.9   10.7   10.5    7.6    5.3
    ## 4 Latin Amer…    6.8    3      1.4    2      2.5    3      4.5    6.6    8.5    8.6    8.6    8.6    8.1    9.4
    ## 5 Northern A…    1      0.5    0.3    0.3    0.7    2.1    5      6.8    5.2    5      5      5      4.5    4.1
    ## 6 Oceania        0.5    0.5    0.4    0.3    0.2    0.2    0.4    0.5    0.5    0.5    0.5    0.5    0.6    0.5
    ## 
    ## [[11]]
    ## # A tibble: 33 × 9
    ##    Year      World   Africa Asia  Europe `Latin America& Carib.[Note 1]` `North America[Note 1]` Oceania Notes 
    ##    <chr>     <chr>   <chr>  <chr>  <int>                           <int>                   <int>   <dbl> <chr> 
    ##  1 70,000 BC < 0.015 ""     ""        NA                               0                       0      NA "[119…
    ##  2 10,000 BC 4       ""     ""        NA                              NA                      NA      NA "[120…
    ##  3 8000 BC   5       ""     ""        NA                              NA                      NA      NA ""    
    ##  4 6500 BC   5       ""     ""        NA                              NA                      NA      NA ""    
    ##  5 5000 BC   5       ""     ""        NA                              NA                      NA      NA ""    
    ##  6 4000 BC   7       ""     ""        NA                              NA                      NA      NA ""    
    ##  7 3000 BC   14      ""     ""        NA                              NA                      NA      NA ""    
    ##  8 2000 BC   27      ""     ""        NA                              NA                      NA      NA ""    
    ##  9 1000 BC   50      "7"    "33"       9                              NA                      NA      NA "[cit…
    ## 10 500 BC    100     "14"   "66"      16                              NA                      NA      NA ""    
    ## # … with 23 more rows
    ## # ℹ Use `print(n = ...)` to see more rows
    ## 
    ## [[12]]
…
    ##     Year `UN est.(millions)` Difference `USCB est.(millions)` Difference
    ##    <int> <chr>               <chr>      <chr>                 <chr>     
    ##  1  2005 6,542               –          6,473                 –         
    ##  2  2010 6,957               415        6,866                 393       
    ##  3  2015 7,380               423        7,256                 390       
    ##  4  2020 7,795               415        7,643                 380       
    ##  5  2025 8,184               390        8,007                 363       
    ##  6  2030 8,549               364        8,341                 334       
    ##  7  2035 8,888               339        8,646                 306       
    ##  8  2040 9,199               311        8,926                 280       
    ##  9  2045 9,482               283        9,180                 254       
    ## 10  2050 9,735               253        9,408                 228       
    ## 
    ## [[14]]
    ## # A tibble: 21 × 8
    ##     Year World Asia          Africa        Europe      `Latin America/Caribbean` `Northern America` Oceania  
    ##    <int> <chr> <chr>         <chr>         <chr>       <chr>                     <chr>              <chr>    
    ##  1  2000 6,144 3,741 (60.9%) 811 (13.2%)   726 (11.8%) 522 (8.5%)                312 (5.1%)         31 (0.5%)
    ##  2  2005 6,542 3,978 (60.8%) 916 (14.0%)   729 (11.2%) 558 (8.5%)                327 (5.0%)         34 (0.5%)
    ##  3  2010 6,957 4,210 (60.5%) 1,039 (14.9%) 736 (10.6%) 591 (8.5%)                343 (4.9%)         37 (0.5%)
    ##  4  2015 7,380 4,434 (60.1%) 1,182 (16.0%) 743 (10.1%) 624 (8.5%)                357 (4.8%)         40 (0.5%)
    ##  5  2020 7,795 4,641 (59.5%) 1,341 (17.2%) 748 (9.6%)  654 (8.4%)                369 (4.7%)         43 (0.6%)
    ##  6  2025 8,184 4,823 (58.9%) 1,509 (18.4%) 746 (9.1%)  682 (8.3%)                380 (4.6%)         45 (0.6%)
    ##  7  2030 8,549 4,974 (58.2%) 1,688 (19.8%) 741 (8.7%)  706 (8.3%)                391 (4.6%)         48 (0.6%)
    ##  8  2035 8,888 5,096 (57.3%) 1,878 (21.1%) 735 (8.3%)  726 (8.2%)                401 (4.5%)         50 (0.6%)
    ##  9  2040 9,199 5,189 (56.4%) 2,077 (22.6%) 728 (7.9%)  742 (8.1%)                410 (4.5%)         53 (0.6%)
    ## 10  2045 9,482 5,253 (55.4%) 2,282 (24.1%) 720 (7.6%)  754 (8.0%)                418 (4.4%)         55 (0.6%)
    ## # … with 11 more rows
    ## # ℹ Use `print(n = ...)` to see more rows
    ## 
    ## [[15]]
…
    ##  2 "Biological andrelated topics"                                                                       "Popul…
    ##  3 "Populationecology"                                                                                  "Earth…
    ##  4 "Society and population"                                                                             "Bioca…
    ##  5 "Literature"                                                                                         "A Mod…
    ##  6 "Publications"                                                                                       "Popul…
    ##  7 "Lists"                                                                                              "Popul…
    ##  8 "Events andorganizations"                                                                            "7 Bil…
    ##  9 "Related topics"                                                                                     "Deep …
    ## 10 "Commons\nHuman overpopulation"                                                                      "Commo…
    ## # … with abbreviated variable names
    ## #   ¹​`.mw-parser-output .navbar{display:inline;font-size:88%;font-weight:normal}.mw-parser-output .navbar-collapse{float:left;text-align:left}.mw-parser-output .navbar-boxtext{word-spacing:0}.mw-parser-output .navbar ul{display:inline-block;white-space:nowrap;line-height:inherit}.mw-parser-output .navbar-brackets::before{margin-right:-0.125em;content:"[ "}.mw-parser-output .navbar-brackets::after{margin-left:-0.125em;content:" ]"}.mw-parser-output .navbar li{word-spacing:-0.125em}.mw-parser-output .navbar a>span,.mw-parser-output .navbar a>abbr{text-decoration:inherit}.mw-parser-output .navbar-mini abbr{font-variant:small-caps;border-bottom:none;text-decoration:none;cursor:inherit}.mw-parser-output .navbar-ct-full{font-size:114%;margin:0 7em}.mw-parser-output .navbar-ct-mini{font-size:114%;margin:0 4em}vteGlobal human population`,
    ## #   ²​`.mw-parser-output .navbar{display:inline;font-size:88%;font-weight:normal}.mw-parser-output .navbar-collapse{float:left;text-align:left}.mw-parser-output .navbar-boxtext{word-spacing:0}.mw-parser-output .navbar ul{display:inline-block;white-space:nowrap;line-height:inherit}.mw-parser-output .navbar-brackets::before{margin-right:-0.125em;content:"[ "}.mw-parser-output .navbar-brackets::after{margin-left:-0.125em;content:" ]"}.mw-parser-output .navbar li{word-spacing:-0.125em}.mw-parser-output .navbar a>span,.mw-parser-output .navbar a>abbr{text-decoration:inherit}.mw-parser-output .navbar-mini abbr{font-variant:small-caps;border-bottom:none;text-decoration:none;cursor:inherit}.mw-parser-output .navbar-ct-full{font-size:114%;margin:0 7em}.mw-parser-output .navbar-ct-mini{font-size:114%;margin:0 4em}vteGlobal human population`
    ## 
    ## [[18]]
    ## # A tibble: 35 × 70
    ##    Articles…¹ Artic…² ``    ``    ``    ``    ``    ``    ``    ``    ``    ``    ``    ``    ``    ``    ``   
    ##    <chr>      <chr>   <chr> <chr> <chr> <chr> <chr> <chr> <chr> <chr> <chr> <chr> <chr> <chr> <chr> <chr> <chr>
    ##  1 "vteHuman… "vteHu… vteH… vteH… Gene… "Ant… Caus… "Agr… Effe… "Bio… Miti… "Alt… "Com… "Com… vteL… vteL… Glob…
    ##  2 "vteHuman… "vteHu… <NA>  <NA>  <NA>   <NA> <NA>   <NA> <NA>   <NA> <NA>   <NA>  <NA>  <NA> <NA>  <NA>  <NA> 
    ##  3 "General"  "Anthr… <NA>  <NA>  <NA>   <NA> <NA>   <NA> <NA>   <NA> <NA>   <NA>  <NA>  <NA> <NA>  <NA>  <NA> 
    ##  4 "Causes"   "Agric… <NA>  <NA>  <NA>   <NA> <NA>   <NA> <NA>   <NA> <NA>   <NA>  <NA>  <NA> <NA>  <NA>  <NA> 
    ##  5 "Effects"  "Biodi… <NA>  <NA>  <NA>   <NA> <NA>   <NA> <NA>   <NA> <NA>   <NA>  <NA>  <NA> <NA>  <NA>  <NA> 
    ##  6 "Mitigati… "Alter… <NA>  <NA>  <NA>   <NA> <NA>   <NA> <NA>   <NA> <NA>   <NA>  <NA>  <NA> <NA>  <NA>  <NA> 
    ##  7 "Commons\… "Commo… <NA>  <NA>  <NA>   <NA> <NA>   <NA> <NA>   <NA> <NA>   <NA>  <NA>  <NA> <NA>  <NA>  <NA> 
    ##  8 "vteLists… "vteLi… <NA>  <NA>  <NA>   <NA> <NA>   <NA> <NA>   <NA> <NA>   <NA>  <NA>  <NA> <NA>  <NA>  <NA> 
    ##  9 "Global"   "Curre… <NA>  <NA>  <NA>   <NA> <NA>   <NA> <NA>   <NA> <NA>   <NA>  <NA>  <NA> <NA>  <NA>  <NA> 
    ## 10 "Continen… "Afric… <NA>  <NA>  <NA>   <NA> <NA>   <NA> <NA>   <NA> <NA>   <NA>  <NA>  <NA> <NA>  <NA>  <NA> 
    ## # … with 25 more rows, 53 more variables: `` <chr>, `` <chr>, `` <chr>, `` <chr>, `` <chr>, `` <chr>,
    ## #   `` <chr>, `` <chr>, `` <chr>, `` <chr>, `` <chr>, `` <chr>, `` <chr>, `` <chr>, `` <chr>, `` <chr>,
    ## #   `` <chr>, `` <chr>, `` <chr>, `` <chr>, `` <chr>, `` <chr>, `` <chr>, `` <chr>, `` <chr>, `` <chr>,
    ## #   `` <chr>, `` <chr>, `` <chr>, `` <chr>, `` <chr>, `` <chr>, `` <chr>, `` <chr>, `` <chr>, `` <chr>,
    ## #   `` <chr>, `` <chr>, `` <chr>, `` <chr>, `` <chr>, `` <chr>, `` <chr>, `` <chr>, `` <chr>, `` <chr>,
    ## #   `` <chr>, `` <chr>, `` <chr>, `` <chr>, `` <chr>, `` <chr>, `` <chr>, and abbreviated variable names
    ## #   ¹​`Articles related to the world's population`, ²​`Articles related to the world's population`
    ## # ℹ Use `print(n = ...)` to see more rows, and `colnames()` to see all variable names
    ## 
…
